{
    "version": "1.4.0",
    "project": {
        "name": "root",
        "directory": "/home/tylerwbrown/Code/Personal/mom_bots/welcomebot",
        "workspaceDir": "/home/tylerwbrown/Code/Personal/mom_bots/welcomebot",
        "sources": [
            "/home/tylerwbrown/Code/Personal/mom_bots/welcomebot/src/main/scala",
            "/home/tylerwbrown/Code/Personal/mom_bots/welcomebot/src/main/scala-3",
            "/home/tylerwbrown/Code/Personal/mom_bots/welcomebot/src/main/java",
            "/home/tylerwbrown/Code/Personal/mom_bots/welcomebot/target/scala-3.1.0/src_managed/main"
        ],
        "dependencies": [
            
        ],
        "classpath": [
            "/home/tylerwbrown/.cache/coursier/v1/https/repo1.maven.org/maven2/org/scala-lang/scala3-library_3/3.1.0/scala3-library_3-3.1.0.jar",
            "/home/tylerwbrown/.cache/coursier/v1/https/repo1.maven.org/maven2/org/scala-lang/scala-library/2.13.6/scala-library-2.13.6.jar",
            "/home/tylerwbrown/.cache/coursier/v1/https/repo1.maven.org/maven2/org/javacord/javacord-api/3.3.2/javacord-api-3.3.2.jar",
            "/home/tylerwbrown/.cache/coursier/v1/https/repo1.maven.org/maven2/org/javacord/javacord-core/3.3.2/javacord-core-3.3.2.jar",
            "/home/tylerwbrown/.cache/coursier/v1/https/repo1.maven.org/maven2/com/squareup/okhttp3/okhttp/3.9.1/okhttp-3.9.1.jar",
            "/home/tylerwbrown/.cache/coursier/v1/https/repo1.maven.org/maven2/com/squareup/okhttp3/logging-interceptor/3.9.1/logging-interceptor-3.9.1.jar",
            "/home/tylerwbrown/.cache/coursier/v1/https/repo1.maven.org/maven2/com/fasterxml/jackson/core/jackson-databind/2.9.3/jackson-databind-2.9.3.jar",
            "/home/tylerwbrown/.cache/coursier/v1/https/repo1.maven.org/maven2/com/neovisionaries/nv-websocket-client/2.6/nv-websocket-client-2.6.jar",
            "/home/tylerwbrown/.cache/coursier/v1/https/repo1.maven.org/maven2/com/codahale/xsalsa20poly1305/0.10.1/xsalsa20poly1305-0.10.1.jar",
            "/home/tylerwbrown/.cache/coursier/v1/https/repo1.maven.org/maven2/org/apache/logging/log4j/log4j-api/2.11.0/log4j-api-2.11.0.jar",
            "/home/tylerwbrown/.cache/coursier/v1/https/repo1.maven.org/maven2/io/vavr/vavr/0.10.1/vavr-0.10.1.jar",
            "/home/tylerwbrown/.cache/coursier/v1/https/repo1.maven.org/maven2/com/squareup/okio/okio/1.14.0/okio-1.14.0.jar",
            "/home/tylerwbrown/.cache/coursier/v1/https/repo1.maven.org/maven2/com/fasterxml/jackson/core/jackson-annotations/2.9.0/jackson-annotations-2.9.0.jar",
            "/home/tylerwbrown/.cache/coursier/v1/https/repo1.maven.org/maven2/com/fasterxml/jackson/core/jackson-core/2.9.3/jackson-core-2.9.3.jar",
            "/home/tylerwbrown/.cache/coursier/v1/https/repo1.maven.org/maven2/org/bouncycastle/bcprov-jdk15on/1.59/bcprov-jdk15on-1.59.jar",
            "/home/tylerwbrown/.cache/coursier/v1/https/repo1.maven.org/maven2/io/vavr/vavr-match/0.10.1/vavr-match-0.10.1.jar"
        ],
        "out": "/home/tylerwbrown/Code/Personal/mom_bots/welcomebot/.bloop/root",
        "classesDir": "/home/tylerwbrown/Code/Personal/mom_bots/welcomebot/.bloop/root/scala-3/classes",
        "resources": [
            "/home/tylerwbrown/Code/Personal/mom_bots/welcomebot/src/main/resources",
            "/home/tylerwbrown/Code/Personal/mom_bots/welcomebot/target/scala-3.1.0/resource_managed/main"
        ],
        "scala": {
            "organization": "org.scala-lang",
            "name": "scala-compiler",
            "version": "3.1.0",
            "options": [
                
            ],
            "jars": [
                "/home/tylerwbrown/.cache/coursier/v1/https/repo1.maven.org/maven2/org/scala-lang/scala3-library_3/3.1.0/scala3-library_3-3.1.0.jar",
                "/home/tylerwbrown/.cache/coursier/v1/https/repo1.maven.org/maven2/org/scala-lang/scala-library/2.13.6/scala-library-2.13.6.jar",
                "/home/tylerwbrown/.cache/coursier/v1/https/repo1.maven.org/maven2/org/scala-lang/scala3-compiler_3/3.1.0/scala3-compiler_3-3.1.0.jar",
                "/home/tylerwbrown/.cache/coursier/v1/https/repo1.maven.org/maven2/org/scala-lang/scala3-interfaces/3.1.0/scala3-interfaces-3.1.0.jar",
                "/home/tylerwbrown/.cache/coursier/v1/https/repo1.maven.org/maven2/org/scala-lang/tasty-core_3/3.1.0/tasty-core_3-3.1.0.jar",
                "/home/tylerwbrown/.cache/coursier/v1/https/repo1.maven.org/maven2/org/scala-lang/modules/scala-asm/9.1.0-scala-1/scala-asm-9.1.0-scala-1.jar",
                "/home/tylerwbrown/.cache/coursier/v1/https/repo1.maven.org/maven2/org/scala-sbt/compiler-interface/1.3.5/compiler-interface-1.3.5.jar",
                "/home/tylerwbrown/.cache/coursier/v1/https/repo1.maven.org/maven2/org/jline/jline-reader/3.19.0/jline-reader-3.19.0.jar",
                "/home/tylerwbrown/.cache/coursier/v1/https/repo1.maven.org/maven2/org/jline/jline-terminal/3.19.0/jline-terminal-3.19.0.jar",
                "/home/tylerwbrown/.cache/coursier/v1/https/repo1.maven.org/maven2/org/jline/jline-terminal-jna/3.19.0/jline-terminal-jna-3.19.0.jar",
                "/home/tylerwbrown/.cache/coursier/v1/https/repo1.maven.org/maven2/com/google/protobuf/protobuf-java/3.7.0/protobuf-java-3.7.0.jar",
                "/home/tylerwbrown/.cache/coursier/v1/https/repo1.maven.org/maven2/org/scala-sbt/util-interface/1.3.0/util-interface-1.3.0.jar",
                "/home/tylerwbrown/.cache/coursier/v1/https/repo1.maven.org/maven2/net/java/dev/jna/jna/5.3.1/jna-5.3.1.jar",
                "/home/tylerwbrown/.cache/coursier/v1/https/repo1.maven.org/maven2/org/scala-lang/scaladoc_3/3.1.0/scaladoc_3-3.1.0.jar",
                "/home/tylerwbrown/.cache/coursier/v1/https/repo1.maven.org/maven2/org/scala-lang/scala3-tasty-inspector_3/3.1.0/scala3-tasty-inspector_3-3.1.0.jar",
                "/home/tylerwbrown/.cache/coursier/v1/https/repo1.maven.org/maven2/com/vladsch/flexmark/flexmark/0.42.12/flexmark-0.42.12.jar",
                "/home/tylerwbrown/.cache/coursier/v1/https/repo1.maven.org/maven2/com/vladsch/flexmark/flexmark-html-parser/0.42.12/flexmark-html-parser-0.42.12.jar",
                "/home/tylerwbrown/.cache/coursier/v1/https/repo1.maven.org/maven2/com/vladsch/flexmark/flexmark-ext-anchorlink/0.42.12/flexmark-ext-anchorlink-0.42.12.jar",
                "/home/tylerwbrown/.cache/coursier/v1/https/repo1.maven.org/maven2/com/vladsch/flexmark/flexmark-ext-autolink/0.42.12/flexmark-ext-autolink-0.42.12.jar",
                "/home/tylerwbrown/.cache/coursier/v1/https/repo1.maven.org/maven2/com/vladsch/flexmark/flexmark-ext-emoji/0.42.12/flexmark-ext-emoji-0.42.12.jar",
                "/home/tylerwbrown/.cache/coursier/v1/https/repo1.maven.org/maven2/com/vladsch/flexmark/flexmark-ext-gfm-strikethrough/0.42.12/flexmark-ext-gfm-strikethrough-0.42.12.jar",
                "/home/tylerwbrown/.cache/coursier/v1/https/repo1.maven.org/maven2/com/vladsch/flexmark/flexmark-ext-gfm-tables/0.42.12/flexmark-ext-gfm-tables-0.42.12.jar",
                "/home/tylerwbrown/.cache/coursier/v1/https/repo1.maven.org/maven2/com/vladsch/flexmark/flexmark-ext-gfm-tasklist/0.42.12/flexmark-ext-gfm-tasklist-0.42.12.jar",
                "/home/tylerwbrown/.cache/coursier/v1/https/repo1.maven.org/maven2/com/vladsch/flexmark/flexmark-ext-wikilink/0.42.12/flexmark-ext-wikilink-0.42.12.jar",
                "/home/tylerwbrown/.cache/coursier/v1/https/repo1.maven.org/maven2/com/vladsch/flexmark/flexmark-ext-yaml-front-matter/0.42.12/flexmark-ext-yaml-front-matter-0.42.12.jar",
                "/home/tylerwbrown/.cache/coursier/v1/https/repo1.maven.org/maven2/nl/big-o/liqp/0.6.7/liqp-0.6.7.jar",
                "/home/tylerwbrown/.cache/coursier/v1/https/repo1.maven.org/maven2/org/jsoup/jsoup/1.13.1/jsoup-1.13.1.jar",
                "/home/tylerwbrown/.cache/coursier/v1/https/repo1.maven.org/maven2/com/fasterxml/jackson/dataformat/jackson-dataformat-yaml/2.9.8/jackson-dataformat-yaml-2.9.8.jar",
                "/home/tylerwbrown/.cache/coursier/v1/https/repo1.maven.org/maven2/com/vladsch/flexmark/flexmark-util/0.42.12/flexmark-util-0.42.12.jar",
                "/home/tylerwbrown/.cache/coursier/v1/https/repo1.maven.org/maven2/com/vladsch/flexmark/flexmark-formatter/0.42.12/flexmark-formatter-0.42.12.jar",
                "/home/tylerwbrown/.cache/coursier/v1/https/repo1.maven.org/maven2/org/nibor/autolink/autolink/0.6.0/autolink-0.6.0.jar",
                "/home/tylerwbrown/.cache/coursier/v1/https/repo1.maven.org/maven2/com/vladsch/flexmark/flexmark-jira-converter/0.42.12/flexmark-jira-converter-0.42.12.jar",
                "/home/tylerwbrown/.cache/coursier/v1/https/repo1.maven.org/maven2/org/antlr/antlr/3.5.1/antlr-3.5.1.jar",
                "/home/tylerwbrown/.cache/coursier/v1/https/repo1.maven.org/maven2/com/fasterxml/jackson/core/jackson-annotations/2.2.3/jackson-annotations-2.2.3.jar",
                "/home/tylerwbrown/.cache/coursier/v1/https/repo1.maven.org/maven2/com/fasterxml/jackson/core/jackson-core/2.9.8/jackson-core-2.9.8.jar",
                "/home/tylerwbrown/.cache/coursier/v1/https/repo1.maven.org/maven2/com/fasterxml/jackson/core/jackson-databind/2.2.3/jackson-databind-2.2.3.jar",
                "/home/tylerwbrown/.cache/coursier/v1/https/repo1.maven.org/maven2/org/yaml/snakeyaml/1.23/snakeyaml-1.23.jar",
                "/home/tylerwbrown/.cache/coursier/v1/https/repo1.maven.org/maven2/com/vladsch/flexmark/flexmark-ext-tables/0.42.12/flexmark-ext-tables-0.42.12.jar",
                "/home/tylerwbrown/.cache/coursier/v1/https/repo1.maven.org/maven2/com/vladsch/flexmark/flexmark-ext-ins/0.42.12/flexmark-ext-ins-0.42.12.jar",
                "/home/tylerwbrown/.cache/coursier/v1/https/repo1.maven.org/maven2/com/vladsch/flexmark/flexmark-ext-superscript/0.42.12/flexmark-ext-superscript-0.42.12.jar",
                "/home/tylerwbrown/.cache/coursier/v1/https/repo1.maven.org/maven2/org/antlr/antlr-runtime/3.5.1/antlr-runtime-3.5.1.jar",
                "/home/tylerwbrown/.cache/coursier/v1/https/repo1.maven.org/maven2/org/antlr/ST4/4.0.7/ST4-4.0.7.jar"
            ],
            "analysis": "/home/tylerwbrown/Code/Personal/mom_bots/welcomebot/target/streams/compile/bloopAnalysisOut/_global/streams/inc_compile_3.zip",
            "setup": {
                "order": "mixed",
                "addLibraryToBootClasspath": true,
                "addCompilerToClasspath": false,
                "addExtraJarsToClasspath": false,
                "manageBootClasspath": true,
                "filterLibraryFromClasspath": true
            }
        },
        "java": {
            "options": [
                
            ]
        },
        "test": {
            "frameworks": [
                {
                    "names": [
                        "org.scalacheck.ScalaCheckFramework"
                    ]
                },
                {
                    "names": [
                        "org.specs2.runner.Specs2Framework",
                        "org.specs2.runner.SpecsFramework"
                    ]
                },
                {
                    "names": [
                        "org.specs.runner.SpecsFramework"
                    ]
                },
                {
                    "names": [
                        "org.scalatest.tools.Framework",
                        "org.scalatest.tools.ScalaTestFramework"
                    ]
                },
                {
                    "names": [
                        "com.novocode.junit.JUnitFramework"
                    ]
                },
                {
                    "names": [
                        "munit.Framework"
                    ]
                }
            ],
            "options": {
                "excludes": [
                    
                ],
                "arguments": [
                    
                ]
            }
        },
        "platform": {
            "name": "jvm",
            "config": {
                "home": "/home/tylerwbrown/.sdkman/candidates/java/17.0.0-tem",
                "options": [
                    "-Duser.dir=/home/tylerwbrown/Code/Personal/mom_bots/welcomebot"
                ]
            },
            "mainClass": [
                
            ]
        },
        "resolution": {
            "modules": [
                {
                    "organization": "org.scala-lang",
                    "name": "scala3-library_3",
                    "version": "3.1.0",
                    "configurations": "default",
                    "artifacts": [
                        {
                            "name": "scala3-library_3",
                            "path": "/home/tylerwbrown/.cache/coursier/v1/https/repo1.maven.org/maven2/org/scala-lang/scala3-library_3/3.1.0/scala3-library_3-3.1.0.jar"
                        },
                        {
                            "name": "scala3-library_3",
                            "classifier": "sources",
                            "path": "/home/tylerwbrown/.cache/coursier/v1/https/repo1.maven.org/maven2/org/scala-lang/scala3-library_3/3.1.0/scala3-library_3-3.1.0-sources.jar"
                        }
                    ]
                },
                {
                    "organization": "org.scala-lang",
                    "name": "scala-library",
                    "version": "2.13.6",
                    "configurations": "default",
                    "artifacts": [
                        {
                            "name": "scala-library",
                            "path": "/home/tylerwbrown/.cache/coursier/v1/https/repo1.maven.org/maven2/org/scala-lang/scala-library/2.13.6/scala-library-2.13.6.jar"
                        },
                        {
                            "name": "scala-library",
                            "classifier": "sources",
                            "path": "/home/tylerwbrown/.cache/coursier/v1/https/repo1.maven.org/maven2/org/scala-lang/scala-library/2.13.6/scala-library-2.13.6-sources.jar"
                        }
                    ]
                },
                {
                    "organization": "org.javacord",
                    "name": "javacord-api",
                    "version": "3.3.2",
                    "configurations": "default",
                    "artifacts": [
                        {
                            "name": "javacord-api",
                            "path": "/home/tylerwbrown/.cache/coursier/v1/https/repo1.maven.org/maven2/org/javacord/javacord-api/3.3.2/javacord-api-3.3.2.jar"
                        },
                        {
                            "name": "javacord-api",
                            "classifier": "sources",
                            "path": "/home/tylerwbrown/.cache/coursier/v1/https/repo1.maven.org/maven2/org/javacord/javacord-api/3.3.2/javacord-api-3.3.2-sources.jar"
                        }
                    ]
                },
                {
                    "organization": "org.javacord",
                    "name": "javacord-core",
                    "version": "3.3.2",
                    "configurations": "default",
                    "artifacts": [
                        {
                            "name": "javacord-core",
                            "path": "/home/tylerwbrown/.cache/coursier/v1/https/repo1.maven.org/maven2/org/javacord/javacord-core/3.3.2/javacord-core-3.3.2.jar"
                        },
                        {
                            "name": "javacord-core",
                            "classifier": "sources",
                            "path": "/home/tylerwbrown/.cache/coursier/v1/https/repo1.maven.org/maven2/org/javacord/javacord-core/3.3.2/javacord-core-3.3.2-sources.jar"
                        }
                    ]
                },
                {
                    "organization": "com.squareup.okhttp3",
                    "name": "okhttp",
                    "version": "3.9.1",
                    "configurations": "default",
                    "artifacts": [
                        {
                            "name": "okhttp",
                            "path": "/home/tylerwbrown/.cache/coursier/v1/https/repo1.maven.org/maven2/com/squareup/okhttp3/okhttp/3.9.1/okhttp-3.9.1.jar"
                        },
                        {
                            "name": "okhttp",
                            "classifier": "sources",
                            "path": "/home/tylerwbrown/.cache/coursier/v1/https/repo1.maven.org/maven2/com/squareup/okhttp3/okhttp/3.9.1/okhttp-3.9.1-sources.jar"
                        }
                    ]
                },
                {
                    "organization": "com.squareup.okhttp3",
                    "name": "logging-interceptor",
                    "version": "3.9.1",
                    "configurations": "default",
                    "artifacts": [
                        {
                            "name": "logging-interceptor",
                            "path": "/home/tylerwbrown/.cache/coursier/v1/https/repo1.maven.org/maven2/com/squareup/okhttp3/logging-interceptor/3.9.1/logging-interceptor-3.9.1.jar"
                        },
                        {
                            "name": "logging-interceptor",
                            "classifier": "sources",
                            "path": "/home/tylerwbrown/.cache/coursier/v1/https/repo1.maven.org/maven2/com/squareup/okhttp3/logging-interceptor/3.9.1/logging-interceptor-3.9.1-sources.jar"
                        }
                    ]
                },
                {
                    "organization": "com.fasterxml.jackson.core",
                    "name": "jackson-databind",
                    "version": "2.9.3",
                    "configurations": "default",
                    "artifacts": [
                        {
                            "name": "jackson-databind",
                            "path": "/home/tylerwbrown/.cache/coursier/v1/https/repo1.maven.org/maven2/com/fasterxml/jackson/core/jackson-databind/2.9.3/jackson-databind-2.9.3.jar"
                        },
                        {
                            "name": "jackson-databind",
                            "classifier": "sources",
                            "path": "/home/tylerwbrown/.cache/coursier/v1/https/repo1.maven.org/maven2/com/fasterxml/jackson/core/jackson-databind/2.9.3/jackson-databind-2.9.3-sources.jar"
                        }
                    ]
                },
                {
                    "organization": "com.neovisionaries",
                    "name": "nv-websocket-client",
                    "version": "2.6",
                    "configurations": "default",
                    "artifacts": [
                        {
                            "name": "nv-websocket-client",
                            "path": "/home/tylerwbrown/.cache/coursier/v1/https/repo1.maven.org/maven2/com/neovisionaries/nv-websocket-client/2.6/nv-websocket-client-2.6.jar"
                        },
                        {
                            "name": "nv-websocket-client",
                            "classifier": "sources",
                            "path": "/home/tylerwbrown/.cache/coursier/v1/https/repo1.maven.org/maven2/com/neovisionaries/nv-websocket-client/2.6/nv-websocket-client-2.6-sources.jar"
                        }
                    ]
                },
                {
                    "organization": "com.codahale",
                    "name": "xsalsa20poly1305",
                    "version": "0.10.1",
                    "configurations": "default",
                    "artifacts": [
                        {
                            "name": "xsalsa20poly1305",
                            "path": "/home/tylerwbrown/.cache/coursier/v1/https/repo1.maven.org/maven2/com/codahale/xsalsa20poly1305/0.10.1/xsalsa20poly1305-0.10.1.jar"
                        },
                        {
                            "name": "xsalsa20poly1305",
                            "classifier": "sources",
                            "path": "/home/tylerwbrown/.cache/coursier/v1/https/repo1.maven.org/maven2/com/codahale/xsalsa20poly1305/0.10.1/xsalsa20poly1305-0.10.1-sources.jar"
                        }
                    ]
                },
                {
                    "organization": "org.apache.logging.log4j",
                    "name": "log4j-api",
                    "version": "2.11.0",
                    "configurations": "default",
                    "artifacts": [
                        {
                            "name": "log4j-api",
                            "path": "/home/tylerwbrown/.cache/coursier/v1/https/repo1.maven.org/maven2/org/apache/logging/log4j/log4j-api/2.11.0/log4j-api-2.11.0.jar"
                        },
                        {
                            "name": "log4j-api",
                            "classifier": "sources",
                            "path": "/home/tylerwbrown/.cache/coursier/v1/https/repo1.maven.org/maven2/org/apache/logging/log4j/log4j-api/2.11.0/log4j-api-2.11.0-sources.jar"
                        }
                    ]
                },
                {
                    "organization": "io.vavr",
                    "name": "vavr",
                    "version": "0.10.1",
                    "configurations": "default",
                    "artifacts": [
                        {
                            "name": "vavr",
                            "path": "/home/tylerwbrown/.cache/coursier/v1/https/repo1.maven.org/maven2/io/vavr/vavr/0.10.1/vavr-0.10.1.jar"
                        },
                        {
                            "name": "vavr",
                            "classifier": "sources",
                            "path": "/home/tylerwbrown/.cache/coursier/v1/https/repo1.maven.org/maven2/io/vavr/vavr/0.10.1/vavr-0.10.1-sources.jar"
                        }
                    ]
                },
                {
                    "organization": "com.squareup.okio",
                    "name": "okio",
                    "version": "1.14.0",
                    "configurations": "default",
                    "artifacts": [
                        {
                            "name": "okio",
                            "path": "/home/tylerwbrown/.cache/coursier/v1/https/repo1.maven.org/maven2/com/squareup/okio/okio/1.14.0/okio-1.14.0.jar"
                        },
                        {
                            "name": "okio",
                            "classifier": "sources",
                            "path": "/home/tylerwbrown/.cache/coursier/v1/https/repo1.maven.org/maven2/com/squareup/okio/okio/1.14.0/okio-1.14.0-sources.jar"
                        }
                    ]
                },
                {
                    "organization": "com.fasterxml.jackson.core",
                    "name": "jackson-annotations",
                    "version": "2.9.0",
                    "configurations": "default",
                    "artifacts": [
                        {
                            "name": "jackson-annotations",
                            "path": "/home/tylerwbrown/.cache/coursier/v1/https/repo1.maven.org/maven2/com/fasterxml/jackson/core/jackson-annotations/2.9.0/jackson-annotations-2.9.0.jar"
                        },
                        {
                            "name": "jackson-annotations",
                            "classifier": "sources",
                            "path": "/home/tylerwbrown/.cache/coursier/v1/https/repo1.maven.org/maven2/com/fasterxml/jackson/core/jackson-annotations/2.9.0/jackson-annotations-2.9.0-sources.jar"
                        }
                    ]
                },
                {
                    "organization": "com.fasterxml.jackson.core",
                    "name": "jackson-core",
                    "version": "2.9.3",
                    "configurations": "default",
                    "artifacts": [
                        {
                            "name": "jackson-core",
                            "path": "/home/tylerwbrown/.cache/coursier/v1/https/repo1.maven.org/maven2/com/fasterxml/jackson/core/jackson-core/2.9.3/jackson-core-2.9.3.jar"
                        },
                        {
                            "name": "jackson-core",
                            "classifier": "sources",
                            "path": "/home/tylerwbrown/.cache/coursier/v1/https/repo1.maven.org/maven2/com/fasterxml/jackson/core/jackson-core/2.9.3/jackson-core-2.9.3-sources.jar"
                        }
                    ]
                },
                {
                    "organization": "org.bouncycastle",
                    "name": "bcprov-jdk15on",
                    "version": "1.59",
                    "configurations": "default",
                    "artifacts": [
                        {
                            "name": "bcprov-jdk15on",
                            "path": "/home/tylerwbrown/.cache/coursier/v1/https/repo1.maven.org/maven2/org/bouncycastle/bcprov-jdk15on/1.59/bcprov-jdk15on-1.59.jar"
                        },
                        {
                            "name": "bcprov-jdk15on",
                            "classifier": "sources",
                            "path": "/home/tylerwbrown/.cache/coursier/v1/https/repo1.maven.org/maven2/org/bouncycastle/bcprov-jdk15on/1.59/bcprov-jdk15on-1.59-sources.jar"
                        }
                    ]
                },
                {
                    "organization": "io.vavr",
                    "name": "vavr-match",
                    "version": "0.10.1",
                    "configurations": "default",
                    "artifacts": [
                        {
                            "name": "vavr-match",
                            "path": "/home/tylerwbrown/.cache/coursier/v1/https/repo1.maven.org/maven2/io/vavr/vavr-match/0.10.1/vavr-match-0.10.1.jar"
                        },
                        {
                            "name": "vavr-match",
                            "classifier": "sources",
                            "path": "/home/tylerwbrown/.cache/coursier/v1/https/repo1.maven.org/maven2/io/vavr/vavr-match/0.10.1/vavr-match-0.10.1-sources.jar"
                        }
                    ]
                }
            ]
        },
        "tags": [
            "library"
        ]
    }
}